@startuml logo
!includeurl https://oer-informatik.gitlab.io/uml/umlanwendungsfall/plantuml/umlusecase.cfg

actor :Akteur:
rectangle System {
 usecase Anwendungsfall  
 Akteur -- Anwendungsfall
}
@enduml
