@startuml
!includeurl https://oer-informatik.gitlab.io/uml/umlanwendungsfall/plantuml/umlusecase.cfg

'Akteurin festlegen 
actor :Kundin: as customer

' UseCase definieren (mit Zeilenumbruch \n=Newline)
usecase (Ware \n bestellen) as bestellen

customer -- bestellen	 

@enduml
