@startuml
!includeurl https://oer-informatik.gitlab.io/uml/umlanwendungsfall/plantuml/umlusecase.cfg

actor :Kundin: as customer

rectangle Onlineshop {
	'Angabe des extension point
	usecase bestellen as "bestellen
		--
		<i>extension points:</i>
		Registrierung"  

	customer -- bestellen

	'der Stereotyp 
	bestellen <.(Neukunden-Registrierung) : <<extend>>

	'condition und extension point
	note top on link
		<i>condition:</i>
		{Neukunde}
		<i>extension point:</i>
		Registrierung
	end note
}	 	 
@enduml
